…
``` r
sexto <- quinto_data
sexto$tiempo_de_llamada <- difftime(sexto$Día.Final, sexto$Día.Creación, units = 'mins')
sexto <- sexto %>% group_by(tiempo_de_llamada) %>% summarise(llamada = sum(Call)) %>%  arrange(tiempo_de_llamada) %>% filter(tiempo_de_llamada > -1)
```

    ## `summarise()` ungrouping output (override with `.groups` argument)

``` r
sexto
```

    ## # A tibble: 31 x 2
    ##    tiempo_de_llamada llamada
    ##    <drtn>              <int>
    ##  1 0 mins                221
    ##  2 1 mins                211
    ##  3 2 mins                173
    ##  4 3 mins                195
    ##  5 4 mins                193
    ##  6 5 mins                184
    ##  7 6 mins                193
    ##  8 7 mins                196
    ##  9 8 mins                209
    ## 10 9 mins                165
    ## # ... with 21 more rows
…
