…
### Segunda pregunta práctica

El territorio con más pérdidas son `f7dfc635`, con 14985.02 en pérdidas.
No obstante, no considero retirarnos de ese territorio, puesto que las
pérdidas representan un total muy pequeño de las ventas.

Haciendo una relación de pérdidas contra ventas totales en general, las
regiones de las cuales me retiraría son `68de9759`, `8682908b`,
`45c0376d` porque sus pérdidas representan una porción considerable con
respecto a sus ventas.

    ## `summarise()` ungrouping output (override with `.groups` argument)

    ## # A tibble: 104 x 4
    ##    Territorio ventas_total perdidas razon_perdidas
    ##    <chr>             <dbl>    <dbl>          <dbl>
    ##  1 68de9759          3704.   -226.         -0.0609
    ##  2 8682908b          4612.   -245.         -0.0531
    ##  3 45c0376d         10646.   -475.         -0.0446
    ##  4 0320288f           845.    -33.6        -0.0397
    ##  5 4814799f         24263.   -664.         -0.0274
    ##  6 5a464f3f          4795.   -126.         -0.0263
    ##  7 0bbe6418          8892.   -218.         -0.0245
    ##  8 d43e8f6a          5711.   -136.         -0.0238
    ##  9 6eff1266          7440.   -176.         -0.0237
    ## 10 c31adb2f          9883.   -230.         -0.0233
    ## # ... with 94 more rows
…
